{
	"text": {
		"label": "MODULELABEL.TEXT",
		"type": "text",
		"data": {
			"css": {
				"wrapper": {},
				"text": {}
			}
		},
		"icon": {
			"type": "material-icons",
			"icon": "menu"
		},
		"group": "MODULEGROUP.TEXT",
		"tags": "",
		"default":true
	},
	"image": {
		"label": "MODULELABEL.IMAGE",
		"type": "image",
		"data": {
			"url": "",
			"css": {
				"wrapper": {},
				"image": {},
				"caption": {}
			}
		},
		"icon": {
			"type": "material-icons",
			"icon": "panorama"
		},
		"group": "MODULEGROUP.MEDIA",
		"tags": "",
		"default":true
	},
	"video": {
		"label": "MODULELABEL.VIDEO",
		"type": "video",
		"data": {
			"url": "",
			"type": "youtube",
			"css": {
				"wrapper": {}
			}
		},
		"icon": {
			"type": "material-icons",
			"icon": "videocam"
		},
		"group": "MODULEGROUP.MEDIA",
		"tags": "",
		"default":true
	},
	"button": {
		"label": "MODULELABEL.BUTTON",
		"type": "button",
		"data": {
			"type": "web",
			"css": {
				"wrapper": {},
				"button": {}
			}
		},
		"icon": {
			"type": "material-icons",
			"icon": "radio_button_unchecked"
		},
		"group": "MODULEGROUP.OTHER",
		"tags": "",
		"default":true
	},
	"audio": {
		"label": "MODULELABEL.AUDIO",
		"type": "audio",
		"data": {
			"type": "media",
			"url": "",
			"css": {
				"wrapper": {},
				"player": {}
			}
		},
		"icon": {
			"type": "material-icons",
			"icon": "play_circle_filled"
		},
		"group": "MODULEGROUP.MEDIA",
		"tags": "",
		"default":true
	},
	"newsletter": {
		"label": "MODULELABEL.NEWSLETTER",
		"type": "newsletter",
		"data": {
			"css": {
				"wrapper": {},
				"form": {}
			},
			"with_captcha": false,
			"with_name": false
		},
		"icon": {
			"type": "material-icons",
			"icon": "mail"
		},
		"group": "MODULEGROUP.OTHER",
		"tags": "",
		"default":true
	},
	"divider": {
		"label": "MODULELABEL.DIVIDER",
		"type": "divider",
		"data": {
			"line": true,
			"css": {
				"wrapper": {},
				"divider": {}
			}
		},
		"icon": {
			"type": "fa",
			"icon": "fa-arrows-v"
		},
		"group": "MODULEGROUP.OTHER",
		"tags": "",
		"default":true
	},
	"heading": {
		"label": "MODULELABEL.HEADING",
		"type": "heading",
		"data": {
			"align": "left",
			"size": 1,
			"css": {
				"wrapper": {},
				"heading": {}
			}
		},
		"icon": {
			"type": "fa",
			"icon": "fa-header"
		},
		"group": "MODULEGROUP.TEXT",
		"tags": "",
		"default":true
	},
	"social_icons": {
		"label": "MODULELABEL.SOCIAL_ICONS",
		"type": "social_icons",
		"data": {
			"css": {
				"wrapper": {},
				"icons": {}
			}
		},
		"icon": {
			"type": "fa",
			"icon": "fa-facebook"
		},
		"group": "MODULEGROUP.OTHER",
		"tags": "",
		"default":true
	},
	"feedback": {
		"label": "MODULELABEL.FEEDBACK",
		"type": "feedback",
		"data": {
			"css": {
				"wrapper": {},
				"feedbackIcons": {},
				"feedbackText": {},
				"feedbackLabels": {}
			}
		},
		"icon": {
			"type": "fa",
			"icon": "fa-comment"
		},
		"group": "MODULEGROUP.INTERACTIVE",
		"tags": "",
		"default":true
	},
	"micro_payment": {
		"label": "MODULELABEL.MICRO_PAYMENT",
		"type": "micro_payment",
		"data": {
			"css": {
				"wrapper": {}
			}
		},
		"icon": {
			"type": "fa",
			"icon": "fa-credit-card-alt"
		},
		"group": "MODULEGROUP.INTERACTIVE",
		"tags": "",
		"hidden": true,
		"default":false
	},
	"contact": {
		"label": "MODULELABEL.CONTACT_FORM",
		"type": "contact",
		"data": {
			"css": {
				"wrapper": {}
			},
			"with_captcha": false
		},
		"icon": {
			"type": "fa",
			"icon": "fa-address-card"
		},
		"group": "MODULEGROUP.INTERACTIVE",
		"tags": "",
		"default":true
	},
	"sweepstake": {
		"label": "MODULELABEL.SWEEPSTAKE",
		"type": "sweepstake",
		"data": {
			"css": {
				"wrapper": {}
			},
			"with_captcha": false,
			"store_participation": true,
			"with_firstname": true,
			"with_lastname": true,
			"required_firstname": true,
			"required_lastname": true,
			"answer": "none",
			"with_terms": false
		},
		"icon": {
			"type": "material-icons",
			"icon": "menu"
		},
		"group": "MODULEGROUP.INTERACTIVE",
		"tags": "",
		"default":true
	},
	"icon": {
		"label": "MODULELABEL.ICON",
		"type": "icon",
		"data": {
			"css": {
				"wrapper": {},
				"icon": {}
			},
			"icon_set": "fa"
		},
		"icon": {
			"type": "fa",
			"icon": "fa-circle-o"
		},
		"group": "MODULEGROUP.OTHER",
		"tags": "",
		"default":true
	},
	"spotify": {
		"label": "MODULELABEL.SPOTIFY",
		"type": "spotify",
		"data": {
			"css": {
				"wrapper": {}
			},
			"theme": "dark"
		},
		"icon": {
			"type": "fa",
			"icon": "fa-spotify"
		},
		"group": "MODULEGROUP.OTHER",
		"tags": "",
		"default":true
	},
	"image_gallery": {
		"label": "MODULELABEL.IMAGE_GALLERY",
		"type": "image_gallery",
		"data": {
			"css": {
				"wrapper": {
				},
				"swiper-container": {},
				"classic": {
					"inner": {
						"textAlign": "center"
					},
					"caption": {}
				}
			},
			"type": "slider",
			"columns": 3,
			"show_caption": true
		},
		"icon": {
			"type": "material-icons",
			"icon": "photo_library"
		},
		"group": "MODULEGROUP.MEDIA",
		"tags": "",
		"default":true
	},
	"voucher": {
		"label": "MODULELABEL.VOUCHER",
		"type": "voucher",
		"data": {
			"css": {
				"wrapper": {}
			},
			"type":"text",
			"bc_type":"qrcode",
			"duration": 1,
			"store_participation": false
		},
		"icon": {
			"type": "material-icons",
			"icon": "monetization_on"
		},
		"group": "MODULEGROUP.OTHER",
		"tags": "",
		"default":true
	},
	"vag": {
		"label": "MODULELABEL.VAG",
		"type": "vag",
		"data": {
			"css": {
				"wrapper": {}
			}
		},
		"icon": {
			"type": "fa",
			"icon": "fa-bus"
		},
		"group": "MODULEGROUP.OTHER",
		"tags": "",
		"hidden": true,
		"default":false
	}
}
