{
  "staticFileGlobs": [
    "public/fonts/lato-light-webfont.woff",
    "public/fonts/lato-light-webfont.woff2",
    "public/fonts/lato-regular-webfont.woff",
    "public/fonts/lato-regular-webfont.woff2",
    "public/img/**/*.{png,jpg,gif,svg}",
    "public/lang/*.json",
    "public/markdown/**/*.{json,md}",
    "public/icons/fa.json"
  ],
  "stripPrefix": "public",
  "maximumFileSizeToCacheInBytes": 30242880,
  "runtimeCaching": [],
  "handleFetch": true
}
